<svg width="19" height="19" viewBox="0 0 19 19" fill="none" xmlns="http://www.w3.org/2000/svg">
<path d="M9.73242 18.6409C14.7031 18.6409 18.8047 14.5295 18.8047 9.55884C18.8047 4.5979 14.6934 0.486572 9.73242 0.486572C4.76172 0.486572 0.650391 4.5979 0.650391 9.55884C0.650391 14.5295 4.77148 18.6409 9.73242 18.6409ZM10.2012 1.94165C11.0898 2.22485 11.9004 3.27954 12.4766 4.75415C11.7832 4.89087 11.0215 4.96899 10.2012 4.99829V1.94165ZM6.98828 4.75415C7.55469 3.27954 8.375 2.22485 9.26367 1.94165V4.99829C8.43359 4.96899 7.67188 4.89087 6.98828 4.75415ZM12.0176 2.17603C13.1309 2.51782 14.1367 3.10376 14.9766 3.87524C14.5273 4.13892 14 4.35376 13.4141 4.52954C13.043 3.57251 12.5645 2.76196 12.0176 2.17603ZM4.47852 3.87524C5.31836 3.10376 6.32422 2.51782 7.4375 2.17603C6.89062 2.76196 6.42188 3.57251 6.05078 4.52954C5.45508 4.35376 4.9375 4.13892 4.47852 3.87524ZM14.2637 9.08032C14.2246 7.73267 14.0293 6.48267 13.707 5.39868C14.4395 5.17407 15.0938 4.89087 15.6309 4.55884C16.6758 5.78931 17.3398 7.36157 17.4473 9.08032H14.2637ZM2.01758 9.08032C2.125 7.36157 2.78906 5.78931 3.83398 4.55884C4.36133 4.89087 5.01562 5.17407 5.75781 5.39868C5.43555 6.48267 5.23047 7.73267 5.19141 9.08032H2.01758ZM10.2012 9.08032V5.93579C11.1094 5.90649 11.9688 5.79907 12.7695 5.63306C13.0723 6.66821 13.2578 7.84985 13.2969 9.08032H10.2012ZM6.1582 9.08032C6.19727 7.84985 6.39258 6.66821 6.69531 5.63306C7.48633 5.79907 8.3457 5.90649 9.26367 5.93579V9.08032H6.1582ZM2.01758 10.0276H5.19141C5.23047 11.3948 5.42578 12.6643 5.75781 13.7581C5.02539 13.9827 4.38086 14.2561 3.85352 14.5881C2.78906 13.3479 2.11523 11.7659 2.01758 10.0276ZM6.1582 10.0276H9.26367V13.2209C8.3457 13.2502 7.48633 13.3577 6.69531 13.5237C6.38281 12.4788 6.19727 11.2776 6.1582 10.0276ZM10.2012 13.2209V10.0276H13.3066C13.2676 11.2776 13.0723 12.4788 12.7695 13.5237C11.9688 13.3577 11.1094 13.2502 10.2012 13.2209ZM13.707 13.7581C14.0293 12.6643 14.2344 11.3948 14.2637 10.0276H17.4473C17.3496 11.7659 16.6758 13.3479 15.6211 14.5979C15.084 14.2659 14.4395 13.9827 13.707 13.7581ZM6.98828 14.3928C7.67188 14.2659 8.43359 14.1877 9.26367 14.1584V17.2151C8.375 16.9319 7.55469 15.8772 6.98828 14.3928ZM10.2012 14.1584C11.0215 14.1877 11.7832 14.2659 12.4766 14.3928C11.9004 15.8772 11.0898 16.9319 10.2012 17.2151V14.1584ZM13.4141 14.6272C13.9902 14.7932 14.5078 15.0178 14.9668 15.2717C14.1367 16.0237 13.1504 16.6096 12.0566 16.9514C12.584 16.3557 13.043 15.5647 13.4141 14.6272ZM4.50781 15.2717C4.94727 15.0081 5.46484 14.7932 6.05078 14.6272C6.41211 15.5647 6.87109 16.3557 7.39844 16.9417C6.30469 16.5999 5.32812 16.0237 4.50781 15.2717Z" fill="#0F3972"/>
</svg>
