<svg width="70" height="74" viewBox="0 0 70 74" fill="none" xmlns="http://www.w3.org/2000/svg">
<path d="M11.8513 8.27808H59.7701L67.1682 14.2706L59.7701 20.2631H11.8513V8.27808Z" stroke="#003869" stroke-width="3"/>
<path d="M58.0613 39.9375L10.1425 39.9375L2.74442 33.945L10.1425 27.9525L58.0613 27.9525L58.0613 39.9375Z" stroke="#003869" stroke-width="3"/>
<line x1="35.553" y1="19.0703" x2="35.553" y2="26.5094" stroke="#003869" stroke-width="3"/>
<line x1="35.553" y1="39.6581" x2="35.5488" y2="73.9393" stroke="#003869" stroke-width="3"/>
<line x1="35.553" y1="6.5567e-08" x2="35.553" y2="7.43909" stroke="#003869" stroke-width="3"/>
<line x1="30.4282" y1="72.4392" x2="40.2812" y2="72.4392" stroke="#003869" stroke-width="3"/>
</svg>
